Topic 17: Databases and Big Data
…
```r
tailnum_delay = tailnum_delay_db |> collect()
class(tailnum_delay)
```

```
#> [1] "tbl_df"     "tbl"        "data.frame"
```

```r
tailnum_delay
```

```
#> # A tibble: 1,201 × 4
#>    tailnum mean_dep_delay mean_arr_delay     n
#>    <chr>            <dbl>          <dbl> <int>
#>  1 N11119            32.6           30.3   148
#>  2 N16919            32.4           29.9   251
#>  3 N14998            29.4           27.9   230
#>  4 N15910            29.3           27.6   280
#>  5 N13123            29.6           26.0   121
#>  6 N11192            27.5           25.9   154
#>  7 N14950            26.2           25.3   219
#>  8 N21130            27.0           25.0   126
#>  9 N24128            24.8           24.9   129
#> 10 N22971            26.5           24.7   230
#> # ℹ 1,191 more rows
```
…
---

# Which countries fish the most?

```r
effort_by_country
```

```
#> # A tibble: 126 × 2
#>    flag  total_fishing_hours
#>    <chr>               <dbl>
#>  1 CHN             57711389.
#>  2 ESP              8806223.
#>  3 ITA              6790417.
#>  4 FRA              6122613.
#>  5 RUS              5660001.
#>  6 KOR              5585248.
#>  7 TWN              5337054.
#>  8 GBR              4383738.
#>  9 JPN              4347252.
#> 10 NOR              4128516.
#> # ℹ 116 more rows
```
…
---

# Extract a 1° grid of fishing hours

Here are the results:

```r
globe
```

```
#> # A tibble: 20,412 × 3
#>    lat_bin_center lon_bin_center fishing_hours
#>             <dbl>          <dbl>         <dbl>
#>  1           52.5          -12.5        15109.
#>  2           75.5           40.5        14164.
#>  3           70.5           47.5         1251.
#>  4           52.5          154.          4258.
#>  5          -55.5          -72.5          349.
#>  6          -49.5          -61.5         1726.
#>  7           51.5           -7.5        33791.
#>  8           63.5          -16.5         7498.
#>  9           61.5          176.          4180.
#> 10           69.5           38.5         1748.
#> # ℹ 20,402 more rows
```
…
