Topic 14: Prediction Methods
…
---

Last, we want to **set up any resampling** methods we're going to apply.

Define folds for 5-fold cross-validation:

```r
credit_cv = credit_train |> vfold_cv(v = 5)
tidy(credit_cv)
```

```
#> # A tibble: 1,600 × 3
#>      Row Data     Fold 
#>    <int> <chr>    <chr>
#>  1     1 Analysis Fold2
#>  2     1 Analysis Fold3
#>  3     1 Analysis Fold4
#>  4     1 Analysis Fold5
#>  5     2 Analysis Fold1
#>  6     2 Analysis Fold2
#>  7     2 Analysis Fold3
#>  8     2 Analysis Fold5
#>  9     3 Analysis Fold1
#> 10     3 Analysis Fold2
#> # ℹ 1,590 more rows
```
…
