Lecture 6: Data Acquisition
…
---

# Application: Women's 100-meter sprint

Convert the second table to a data frame:

```r
records = tables[[2]] |> html_table()
records
```

```
## # A tibble: 55 × 7
##    Time       Wind  Auto  Athlete             Nationality    Location      Date 
##    <chr>      <chr> <chr> <chr>               <chr>          <chr>         <chr>
##  1 13.6       ""    ""    Marie Mejzlíková II Czechoslovakia Prague, Czec… Augu…
##  2 12.8       ""    ""    Mary Lines          United Kingdom Paris, France Augu…
##  3 12.7(110y) ""    ""    Emmi Haux           Germany        Frankfurt, G… May …
##  4 12.8       ""    ""    Marie Mejzlíková    Czechoslovakia Prague, Czec… May …
##  5 12.4       ""    ""    Leni Schmidt        Germany        Leipzig, Ger… Augu…
##  6 12.2(110y) ""    ""    Leni Junker         Germany        Wiesbaden, G… Sept…
##  7 12.4       ""    ""    Gundel Wittmann     Germany        Braunschweig… Augu…
##  8 12.2       ""    ""    Leni Junker         Germany        Hanover, Ger… Augu…
##  9 12.1(110y) ""    ""    Gertrud Gladitsch   Germany        Stuttgart, G… July…
## 10 12.2       ""    ""    Kinue Hitomi        Japan          Osaka, Japan  May …
## # … with 45 more rows
## # ℹ Use `print(n = ...)` to see more rows
```
…
--

```r
selector = "#mw-content-text > div.mw-parser-output > table:nth-child(8) > tbody"
records2 = page |> 
  html_elements(selector) |>
  html_table()
records2
```

```
## [[1]]
## # A tibble: 55 × 7
##    Time       Wind  Auto  Athlete             Nationality    Location      Date 
##    <chr>      <chr> <chr> <chr>               <chr>          <chr>         <chr>
##  1 13.6       ""    ""    Marie Mejzlíková II Czechoslovakia Prague, Czec… Augu…
##  2 12.8       ""    ""    Mary Lines          United Kingdom Paris, France Augu…
##  3 12.7(110y) ""    ""    Emmi Haux           Germany        Frankfurt, G… May …
##  4 12.8       ""    ""    Marie Mejzlíková    Czechoslovakia Prague, Czec… May …
##  5 12.4       ""    ""    Leni Schmidt        Germany        Leipzig, Ger… Augu…
##  6 12.2(110y) ""    ""    Leni Junker         Germany        Wiesbaden, G… Sept…
##  7 12.4       ""    ""    Gundel Wittmann     Germany        Braunschweig… Augu…
##  8 12.2       ""    ""    Leni Junker         Germany        Hanover, Ger… Augu…
##  9 12.1(110y) ""    ""    Gertrud Gladitsch   Germany        Stuttgart, G… July…
## 10 12.2       ""    ""    Kinue Hitomi        Japan          Osaka, Japan  May …
## # … with 45 more rows
## # ℹ Use `print(n = ...)` to see more rows
```
…
If you `View` this object you'll find that what we really want is `json$observations`.

```r
bzn_house_prices = as_tibble(json$observations)
bzn_house_prices
```

```
## # A tibble: 74 × 4
##    realtime_start realtime_end date       value   
##    <chr>          <chr>        <chr>      <chr>   
##  1 2022-09-26     2022-09-26   2016-07-01 479000.0
##  2 2022-09-26     2022-09-26   2016-08-01 462450.0
##  3 2022-09-26     2022-09-26   2016-09-01 449950.0
##  4 2022-09-26     2022-09-26   2016-10-01 469900.0
##  5 2022-09-26     2022-09-26   2016-11-01 475000.0
##  6 2022-09-26     2022-09-26   2016-12-01 495000.0
##  7 2022-09-26     2022-09-26   2017-01-01 479000.0
##  8 2022-09-26     2022-09-26   2017-02-01 499000.0
##  9 2022-09-26     2022-09-26   2017-03-01 499900.0
## 10 2022-09-26     2022-09-26   2017-04-01 525000.0
## # … with 64 more rows
## # ℹ Use `print(n = ...)` to see more rows
```
…
Cleaning up a little bit:

```r
bzn_house_prices = as_tibble(json$observations) |>
  mutate(
    date = ymd(date),
    median_price = as.numeric(value)
  ) |>
  select(date, median_price)
bzn_house_prices
```

```
## # A tibble: 74 × 2
##    date       median_price
##    <date>            <dbl>
##  1 2016-07-01       479000
##  2 2016-08-01       462450
##  3 2016-09-01       449950
##  4 2016-10-01       469900
##  5 2016-11-01       475000
##  6 2016-12-01       495000
##  7 2017-01-01       479000
##  8 2017-02-01       499000
##  9 2017-03-01       499900
## 10 2017-04-01       525000
## # … with 64 more rows
## # ℹ Use `print(n = ...)` to see more rows
```
…
