Lecture 4: Data Wrangling in the Tidyverse
…
---

# 2) dplyr::arrange

`arrange` sorts your data frame by a particular column (numerically, or alphabetically)

```r
starwars |> 
  arrange(birth_year)
```

```
## # A tibble: 87 × 14
##    name        height  mass hair_…¹ skin_…² eye_c…³ birth…⁴ sex   gender homew…⁵
##    <chr>        <int> <dbl> <chr>   <chr>   <chr>     <dbl> <chr> <chr>  <chr>  
##  1 Wicket Sys…     88  20   brown   brown   brown       8   male  mascu… Endor  
##  2 IG-88          200 140   none    metal   red        15   none  mascu… <NA>   
##  3 Luke Skywa…    172  77   blond   fair    blue       19   male  mascu… Tatooi…
##  4 Leia Organa    150  49   brown   light   brown      19   fema… femin… Aldera…
##  5 Wedge Anti…    170  77   brown   fair    hazel      21   male  mascu… Corell…
##  6 Plo Koon       188  80   none    orange  black      22   male  mascu… Dorin  
##  7 Biggs Dark…    183  84   black   light   brown      24   male  mascu… Tatooi…
##  8 Han Solo       180  80   brown   fair    brown      29   male  mascu… Corell…
##  9 Lando Calr…    177  79   black   dark    brown      31   male  mascu… Socorro
## 10 Boba Fett      183  78.2 black   fair    brown      31.5 male  mascu… Kamino 
## # … with 77 more rows, 4 more variables: species <chr>, films <list>,
## #   vehicles <list>, starships <list>, and abbreviated variable names
## #   ¹​hair_color, ²​skin_color, ³​eye_color, ⁴​birth_year, ⁵​homeworld
## # ℹ Use `print(n = ...)` to see more rows, and `colnames()` to see all variable names
```

---

# 2) dplyr::arrange

We can also arrange items in descending order using `arrange(desc())`.

```r
starwars |> 
  arrange(desc(birth_year))
```

```
## # A tibble: 87 × 14
##    name        height  mass hair_…¹ skin_…² eye_c…³ birth…⁴ sex   gender homew…⁵
##    <chr>        <int> <dbl> <chr>   <chr>   <chr>     <dbl> <chr> <chr>  <chr>  
##  1 Yoda            66    17 white   green   brown       896 male  mascu… <NA>   
##  2 Jabba Desi…    175  1358 <NA>    green-… orange      600 herm… mascu… Nal Hu…
##  3 Chewbacca      228   112 brown   unknown blue        200 male  mascu… Kashyy…
##  4 C-3PO          167    75 <NA>    gold    yellow      112 none  mascu… Tatooi…
##  5 Dooku          193    80 white   fair    brown       102 male  mascu… Serenno
##  6 Qui-Gon Ji…    193    89 brown   fair    blue         92 male  mascu… <NA>   
##  7 Ki-Adi-Mun…    198    82 white   pale    yellow       92 male  mascu… Cerea  
##  8 Finis Valo…    170    NA blond   fair    blue         91 male  mascu… Corusc…
##  9 Palpatine      170    75 grey    pale    yellow       82 male  mascu… Naboo  
## 10 Cliegg Lars    183    NA brown   fair    blue         82 male  mascu… Tatooi…
## # … with 77 more rows, 4 more variables: species <chr>, films <list>,
## #   vehicles <list>, starships <list>, and abbreviated variable names
## #   ¹​hair_color, ²​skin_color, ³​eye_color, ⁴​birth_year, ⁵​homeworld
## # ℹ Use `print(n = ...)` to see more rows, and `colnames()` to see all variable names
```
…
---

# 3) dplyr::select

Use commas to select multiple columns out of a data frame. (You can also use "first:last" for consecutive columns). Deselect a column with "-".

```r
starwars |> 
  select(name:skin_color, species, -height)
```

```
## # A tibble: 87 × 5
##    name                mass hair_color    skin_color  species
##    <chr>              <dbl> <chr>         <chr>       <chr>  
##  1 Luke Skywalker        77 blond         fair        Human  
##  2 C-3PO                 75 <NA>          gold        Droid  
##  3 R2-D2                 32 <NA>          white, blue Droid  
##  4 Darth Vader          136 none          white       Human  
##  5 Leia Organa           49 brown         light       Human  
##  6 Owen Lars            120 brown, grey   light       Human  
##  7 Beru Whitesun lars    75 brown         light       Human  
##  8 R5-D4                 32 <NA>          white, red  Droid  
##  9 Biggs Darklighter     84 black         light       Human  
## 10 Obi-Wan Kenobi        77 auburn, white fair        Human  
## # … with 77 more rows
## # ℹ Use `print(n = ...)` to see more rows
```

---

# 3) dplyr::select

You can also rename some (or all) of your selected variables in place.

```r
starwars |>
  select(alias=name, crib=homeworld) 
```

```
## # A tibble: 87 × 2
##    alias              crib    
##    <chr>              <chr>   
##  1 Luke Skywalker     Tatooine
##  2 C-3PO              Tatooine
##  3 R2-D2              Naboo   
##  4 Darth Vader        Tatooine
##  5 Leia Organa        Alderaan
##  6 Owen Lars          Tatooine
##  7 Beru Whitesun lars Tatooine
##  8 R5-D4              Tatooine
##  9 Biggs Darklighter  Tatooine
## 10 Obi-Wan Kenobi     Stewjon 
## # … with 77 more rows
## # ℹ Use `print(n = ...)` to see more rows
```
…
If you just want to rename columns without subsetting them, you can use `rename`. Try this!

---

# 3) dplyr::select

The `select(contains(PATTERN))` option provides a nice shortcut in relevant cases.

```r
starwars |> 
  select(name, contains("color"))
```

```
## # A tibble: 87 × 4
##    name               hair_color    skin_color  eye_color
##    <chr>              <chr>         <chr>       <chr>    
##  1 Luke Skywalker     blond         fair        blue     
##  2 C-3PO              <NA>          gold        yellow   
##  3 R2-D2              <NA>          white, blue red      
##  4 Darth Vader        none          white       yellow   
##  5 Leia Organa        brown         light       brown    
##  6 Owen Lars          brown, grey   light       blue     
##  7 Beru Whitesun lars brown         light       blue     
##  8 R5-D4              <NA>          white, red  red      
##  9 Biggs Darklighter  black         light       brown    
## 10 Obi-Wan Kenobi     auburn, white fair        blue-gray
## # … with 77 more rows
## # ℹ Use `print(n = ...)` to see more rows
```
…
---

# 4) dplyr::mutate

You can create new columns from scratch, or (more commonly) as transformations of existing columns.

```r
starwars |> 
  select(name, birth_year) |>
  mutate(dog_years = birth_year * 7) |>
  mutate(comment = paste0(name, " is ", dog_years, " in dog years."))
```

```
## # A tibble: 87 × 4
##    name               birth_year dog_years comment                              
##    <chr>                   <dbl>     <dbl> <chr>                                
##  1 Luke Skywalker           19        133  Luke Skywalker is 133 in dog years.  
##  2 C-3PO                   112        784  C-3PO is 784 in dog years.           
##  3 R2-D2                    33        231  R2-D2 is 231 in dog years.           
##  4 Darth Vader              41.9      293. Darth Vader is 293.3 in dog years.   
##  5 Leia Organa              19        133  Leia Organa is 133 in dog years.     
##  6 Owen Lars                52        364  Owen Lars is 364 in dog years.       
##  7 Beru Whitesun lars       47        329  Beru Whitesun lars is 329 in dog yea…
##  8 R5-D4                    NA         NA  R5-D4 is NA in dog years.            
##  9 Biggs Darklighter        24        168  Biggs Darklighter is 168 in dog year…
## 10 Obi-Wan Kenobi           57        399  Obi-Wan Kenobi is 399 in dog years.  
## # … with 77 more rows
## # ℹ Use `print(n = ...)` to see more rows
```
…
# 4) dplyr::mutate

*Note:* `mutate` is order aware. So you can chain multiple mutates in a single call.

```r
starwars |> 
  select(name, birth_year) |>
  mutate(
    dog_years = birth_year * 7,     # Separate with a comma
    comment = paste0(name, " is ", dog_years, " in dog years.")
    )
```

```
## # A tibble: 87 × 4
##    name               birth_year dog_years comment                              
##    <chr>                   <dbl>     <dbl> <chr>                                
##  1 Luke Skywalker           19        133  Luke Skywalker is 133 in dog years.  
##  2 C-3PO                   112        784  C-3PO is 784 in dog years.           
##  3 R2-D2                    33        231  R2-D2 is 231 in dog years.           
##  4 Darth Vader              41.9      293. Darth Vader is 293.3 in dog years.   
##  5 Leia Organa              19        133  Leia Organa is 133 in dog years.     
##  6 Owen Lars                52        364  Owen Lars is 364 in dog years.       
##  7 Beru Whitesun lars       47        329  Beru Whitesun lars is 329 in dog yea…
##  8 R5-D4                    NA         NA  R5-D4 is NA in dog years.            
##  9 Biggs Darklighter        24        168  Biggs Darklighter is 168 in dog year…
## 10 Obi-Wan Kenobi           57        399  Obi-Wan Kenobi is 399 in dog years.  
## # … with 77 more rows
## # ℹ Use `print(n = ...)` to see more rows
```
…
---

# 4) dplyr::mutate

Lastly, combining `mutate` with `across` allows you to easily perform the same operation on a subset of variables.

```r
starwars |> 
  select(name:eye_color) |> 
  mutate(across(where(is.character), toupper))
```

```
## # A tibble: 87 × 6
##    name               height  mass hair_color    skin_color  eye_color
##    <chr>               <int> <dbl> <chr>         <chr>       <chr>    
##  1 LUKE SKYWALKER        172    77 BLOND         FAIR        BLUE     
##  2 C-3PO                 167    75 <NA>          GOLD        YELLOW   
##  3 R2-D2                  96    32 <NA>          WHITE, BLUE RED      
##  4 DARTH VADER           202   136 NONE          WHITE       YELLOW   
##  5 LEIA ORGANA           150    49 BROWN         LIGHT       BROWN    
##  6 OWEN LARS             178   120 BROWN, GREY   LIGHT       BLUE     
##  7 BERU WHITESUN LARS    165    75 BROWN         LIGHT       BLUE     
##  8 R5-D4                  97    32 <NA>          WHITE, RED  RED      
##  9 BIGGS DARKLIGHTER     183    84 BLACK         LIGHT       BROWN    
## 10 OBI-WAN KENOBI        182    77 AUBURN, WHITE FAIR        BLUE-GRAY
## # … with 77 more rows
## # ℹ Use `print(n = ...)` to see more rows
```
…
---

# 5) dplyr::summarize

Particularly useful in combination with the `group_by` command.

```r
starwars |> 
  group_by(species) |> 
  summarize(mean_height = mean(height))
```

```
## # A tibble: 38 × 2
##    species   mean_height
##    <chr>           <dbl>
##  1 Aleena            79 
##  2 Besalisk         198 
##  3 Cerean           198 
##  4 Chagrian         196 
##  5 Clawdite         168 
##  6 Droid             NA 
##  7 Dug              112 
##  8 Ewok              88 
##  9 Geonosian        183 
## 10 Gungan           209.
## # … with 28 more rows
## # ℹ Use `print(n = ...)` to see more rows
```
---

# 5) dplyr::summarize

Notice that some of these summarized values are missing. If we want to ignore missing values, use `na.rm = T`:

```r
## Much better
starwars |> 
  group_by(species) |> 
  summarize(mean_height = mean(height, na.rm = T))
```

```
## # A tibble: 38 × 2
##    species   mean_height
##    <chr>           <dbl>
##  1 Aleena            79 
##  2 Besalisk         198 
##  3 Cerean           198 
##  4 Chagrian         196 
##  5 Clawdite         168 
##  6 Droid            131.
##  7 Dug              112 
##  8 Ewok              88 
##  9 Geonosian        183 
## 10 Gungan           209.
## # … with 28 more rows
## # ℹ Use `print(n = ...)` to see more rows
```

---

# 5) dplyr::summarize

The same `across`-based workflow that we saw with `mutate` a few slides back also works with `summarize`. For example:

```r
starwars |> 
  group_by(species) |> 
  summarize(across(where(is.numeric), mean, na.rm=T))
```

```
## # A tibble: 38 × 4
##    species   height  mass birth_year
##    <chr>      <dbl> <dbl>      <dbl>
##  1 Aleena       79   15        NaN  
##  2 Besalisk    198  102        NaN  
##  3 Cerean      198   82         92  
##  4 Chagrian    196  NaN        NaN  
##  5 Clawdite    168   55        NaN  
##  6 Droid       131.  69.8       53.3
##  7 Dug         112   40        NaN  
##  8 Ewok         88   20          8  
##  9 Geonosian   183   80        NaN  
## 10 Gungan      209.  74         52  
## # … with 28 more rows
## # ℹ Use `print(n = ...)` to see more rows
```
…
# Joining operations

Let's perform a left join on the flights and planes datasets.

```r
flights |> 
  left_join(planes)
```

```
## Joining, by = c("year", "tailnum")
```

```
## # A tibble: 336,776 × 10
##     year month   day dep_time arr_time carrier flight tailnum type  model
##    <int> <int> <int>    <int>    <int> <chr>    <int> <chr>   <chr> <chr>
##  1  2013     1     1      517      830 UA        1545 N14228  <NA>  <NA> 
##  2  2013     1     1      533      850 UA        1714 N24211  <NA>  <NA> 
##  3  2013     1     1      542      923 AA        1141 N619AA  <NA>  <NA> 
##  4  2013     1     1      544     1004 B6         725 N804JB  <NA>  <NA> 
##  5  2013     1     1      554      812 DL         461 N668DN  <NA>  <NA> 
##  6  2013     1     1      554      740 UA        1696 N39463  <NA>  <NA> 
##  7  2013     1     1      555      913 B6         507 N516JB  <NA>  <NA> 
##  8  2013     1     1      557      709 EV        5708 N829AS  <NA>  <NA> 
##  9  2013     1     1      557      838 B6          79 N593JB  <NA>  <NA> 
## 10  2013     1     1      558      753 AA         301 N3ALAA  <NA>  <NA> 
## # … with 336,766 more rows
## # ℹ Use `print(n = ...)` to see more rows
```
…
Is it Montana?

--

```r
dat2 = dat |>
  group_by(state) |>
  summarize(tot_cases = sum(cases)) |>
  arrange(tot_cases)
dat2
```

```
## # A tibble: 57 × 2
##    state                    tot_cases
##    <chr>                        <dbl>
##  1 American Samoa                   0
##  2 Marshall Islands                 0
##  3 Northern Mariana Islands         0
##  4 Virgin Islands                   6
##  5 Guam                            12
##  6 Puerto Rico                    118
##  7 Hawaii                         153
##  8 Alaska                         430
##  9 Vermont                       1405
## 10 Maine                         1689
## # … with 47 more rows
## # ℹ Use `print(n = ...)` to see more rows
```
…
