Topic 5: Data Cleaning
…
What's the primary key in the `flights` data frame? Take a minute to investigate/verify.

--

You might think it would be the date + the carrier + the flight or tail number, but neither of those are unique:

```r
flights |> 
  count(year, month, day, carrier, flight) |> 
  filter(n > 1)
```

```
## # A tibble: 24 × 6
##     year month   day carrier flight     n
##    <int> <int> <int> <chr>    <int> <int>
##  1  2013     6     8 WN        2269     2
##  2  2013     6    15 WN        2269     2
##  3  2013     6    22 WN        2269     2
##  4  2013     6    29 WN        2269     2
##  5  2013     7     6 WN        2269     2
##  6  2013     7    13 WN        2269     2
##  7  2013     7    20 WN        2269     2
##  8  2013     7    27 WN        2269     2
##  9  2013     8     3 WN        2269     2
## 10  2013     8    10 WN        2269     2
## # ℹ 14 more rows
```
…
# Surrogate keys

If a data frame lacks a primary key, but it is tidy (each row is an observation), it's often useful to add in **surrogate key**:

```r
flights2 = flights |>
  arrange(year, month, day, carrier, flight, sched_dep_time) |>
  mutate(id = row_number()) |>
  relocate(id)
flights2
```

```
## # A tibble: 336,776 × 20
##       id  year month   day dep_time sched_dep_time dep_delay arr_time
##    <int> <int> <int> <int>    <int>          <int>     <dbl>    <int>
##  1     1  2013     1     1     1825           1829        -4     2056
##  2     2  2013     1     1     1452           1455        -3     1637
##  3     3  2013     1     1     2015           2005        10     2149
##  4     4  2013     1     1     1637           1545        52     1858
##  5     5  2013     1     1     1939           1840        59       29
##  6     6  2013     1     1     1554           1600        -6     1701
##  7     7  2013     1     1     1546           1540         6     1753
##  8     8  2013     1     1     2115           1700       255     2330
##  9     9  2013     1     1     2023           1945        38     2240
## 10    10  2013     1     1     2046           2035        11     2144
## # ℹ 336,766 more rows
## # ℹ 12 more variables: sched_arr_time <int>, arr_delay <dbl>, carrier <chr>,
## #   flight <int>, tailnum <chr>, origin <chr>, dest <chr>, air_time <dbl>,
## #   distance <dbl>, hour <dbl>, minute <dbl>, time_hour <dttm>
```
…
